user_id,challenge_id,bug_id,time
14,16,36630,2018-10-17 16:51:43
14,16,28132,2018-10-17 17:15:34
14,16,300707,2018-10-17 16:50:54
14,16,546572,2018-10-17 17:00:09
14,16,65177,2018-10-17 17:11:23
14,16,409237,2018-10-17 16:50:38
14,16,177054,2018-10-17 17:02:19
14,16,63254,2018-10-17 16:50:39
14,16,178531,2018-10-17 17:14:09
14,16,578192,2018-10-17 17:00:49
14,17,1131793,2018-10-17 16:28:07
14,17,16279,2018-10-18 11:33:57
14,17,1330929,2018-10-17 16:27:56
14,17,94933,2018-10-17 16:31:28
14,17,49251,2018-10-18 09:40:08
14,17,161545,2018-10-18 10:55:51
14,17,14720,2018-10-17 16:27:26
14,17,670817,2018-10-17 16:27:25
14,17,653430,2018-10-17 16:31:17
14,17,85805,2018-10-17 16:29:30
14,17,52868,2018-10-17 16:32:25
14,17,1094714,2018-10-17 16:31:51
14,17,165169,2018-10-17 16:41:52
14,17,55966,2018-10-18 09:49:29
14,17,1334092,2018-10-17 16:27:59
14,17,175380,2018-10-18 11:24:12
14,17,36191,2018-10-18 11:33:00
14,17,599470,2018-10-18 09:23:31
14,17,185232,2018-10-17 16:33:07
14,17,60197,2018-10-17 16:27:48
14,17,79903,2018-10-18 11:51:30
14,17,1078525,2018-10-17 16:28:01
14,17,1037210,2018-10-17 16:50:04
14,17,189886,2018-10-18 11:03:36
14,17,1349674,2018-10-17 16:27:57
14,17,195917,2018-10-18 10:40:12
14,17,1336399,2018-10-17 16:29:10
14,17,571510,2018-10-17 16:28:00
14,17,1356265,2018-10-17 16:27:49
14,17,1345036,2018-10-17 16:27:55
14,17,546703,2018-10-18 13:04:31
14,17,259003,2018-10-18 09:18:16
14,17,1347139,2018-10-17 16:27:54
14,17,1054125,2018-10-17 16:29:28
14,17,1234244,2018-10-17 16:33:09
14,17,260361,2018-10-17 16:32:20
14,17,301234,2018-10-17 16:43:39
14,17,1358773,2018-10-17 16:27:28
14,17,647046,2018-10-17 16:48:49
14,17,328503,2018-10-17 16:29:13
14,17,943417,2018-10-18 11:51:16
14,17,97430,2018-10-17 16:27:24
14,17,1188612,2018-10-17 16:31:30
14,17,99602,2018-10-18 10:42:18
14,17,44691,2018-10-17 16:32:54
14,17,88171,2018-10-18 11:14:13
14,17,620157,2018-10-17 16:28:06
16,17,1330929,2018-10-23 08:06:35
16,17,47072,2018-10-27 22:44:15
16,17,79903,2018-10-17 16:58:56
17,16,28132,2018-10-19 00:50:39
17,16,36630,2018-10-18 16:38:56
17,16,81165,2018-10-18 18:15:04
17,16,177054,2018-11-02 06:57:21
17,16,178531,2018-10-18 16:35:24
17,16,212619,2018-10-18 19:45:42
17,16,227855,2018-10-18 16:35:55
17,16,300707,2018-11-07 04:21:54
17,16,409237,2018-10-24 00:37:44
17,16,438148,2018-10-23 23:05:17
17,16,467517,2018-10-18 22:38:57
17,16,904460,2018-10-31 03:27:16
17,16,3418,2018-11-03 16:54:10
17,16,4839,2018-10-18 16:38:56
17,16,63254,2018-10-18 16:38:55
17,17,99602,2018-10-19 15:48:08
17,17,13191,2018-10-23 06:14:07
17,17,1334092,2018-10-18 18:32:08
17,17,158437,2018-10-18 16:36:57
17,17,41120,2018-10-21 01:32:11
17,17,94933,2018-10-21 21:52:27
17,17,14720,2018-10-21 17:57:37
17,17,151865,2018-10-19 17:07:23
17,17,36191,2018-10-20 20:27:58
17,17,49251,2018-11-06 19:32:18
17,17,1131793,2018-10-21 04:53:11
17,17,118004,2018-10-20 17:02:41
17,17,44691,2018-10-21 05:00:15
17,17,328503,2018-11-03 08:49:53
17,17,310952,2018-10-18 18:36:09
17,17,647046,2018-10-27 11:26:11
17,17,24581,2018-10-18 20:49:29
17,17,307071,2018-10-20 20:25:57
17,17,1330929,2018-10-18 18:36:40
17,17,301234,2018-10-27 09:41:56
17,17,1358773,2018-10-18 18:32:08
17,17,26861,2018-10-18 16:35:56
17,17,1349674,2018-10-19 20:49:03
17,17,620157,2018-10-19 11:38:31
17,17,1347139,2018-10-18 16:39:59
17,17,259003,2018-10-24 20:59:16
17,17,1054125,2018-10-19 02:48:17
17,17,599470,2018-10-27 16:15:49
17,17,233074,2018-11-03 05:19:35
17,17,1345036,2018-10-18 20:42:57
17,17,670817,2018-11-05 07:04:01
17,17,1356265,2018-10-18 16:39:58
17,17,71147,2018-10-18 16:36:27
17,17,1078525,2018-10-21 04:53:12
17,17,195917,2018-10-27 22:32:30
17,17,42892,2018-10-20 18:54:37
17,17,1336399,2018-10-19 23:39:36
17,17,79903,2018-10-18 20:41:57
17,17,189886,2018-10-28 01:16:31
17,17,64307,2018-10-22 16:08:21
17,17,1990,2018-10-18 16:36:27
17,17,60197,2018-10-18 16:35:55
17,17,653430,2018-11-07 00:52:35
17,17,2370,2018-10-18 16:39:58
17,17,57937,2018-10-18 18:36:40
17,17,97430,2018-10-18 16:35:56
17,17,175380,2018-10-21 07:05:58
17,17,161545,2018-10-19 10:38:51
17,17,1094714,2018-10-19 02:34:45
17,17,6895,2018-10-18 16:35:55
17,17,85805,2018-10-22 01:39:37
17,17,165169,2018-10-19 10:58:54
17,17,55966,2018-10-19 05:13:38
27,15,-1,2018-10-18 03:16:26
27,15,4111,2018-10-18 03:21:10
27,16,63254,2018-10-22 04:34:59
27,16,409237,2018-10-22 04:34:58
27,16,177054,2018-10-22 05:18:12
27,16,65177,2018-10-22 05:51:54
27,16,227855,2018-10-21 19:55:30
27,16,300707,2018-10-22 14:16:54
27,16,467517,2018-10-22 05:18:12
27,16,28132,2018-10-22 04:36:33
27,16,212619,2018-10-22 04:39:38
27,16,36630,2018-10-22 04:41:12
27,16,546572,2018-10-22 04:36:34
27,16,81165,2018-10-18 21:35:13
27,16,178531,2018-10-22 05:21:29
27,16,4839,2018-10-22 04:35:00
27,16,50985,2018-10-24 10:38:18
27,17,99602,2018-10-22 05:17:40
27,17,653430,2018-10-22 15:29:07
27,17,670817,2018-10-22 05:58:43
27,17,943417,2018-10-28 08:11:46
27,17,1037210,2018-10-24 15:38:32
27,17,1054125,2018-10-22 04:54:08
27,17,1078525,2018-10-22 05:26:13
27,17,1094714,2018-10-22 06:29:40
27,17,1131793,2018-10-22 05:53:48
27,17,1188612,2018-10-30 21:49:56
27,17,1234244,2018-10-22 06:19:00
27,17,1330929,2018-10-22 04:41:11
27,17,1334092,2018-10-22 05:26:12
27,17,1336399,2018-10-22 05:27:46
27,17,1345036,2018-10-22 04:36:38
27,17,1347139,2018-10-22 05:06:45
27,17,1349674,2018-10-22 04:42:43
27,17,1358773,2018-10-22 04:54:08
27,17,1356265,2018-10-22 04:35:06
27,17,1990,2018-10-22 05:15:26
27,17,2370,2018-10-22 04:41:12
27,17,6895,2018-10-22 04:36:38
27,17,8255,2018-10-28 05:12:59
27,17,13191,2018-10-22 04:54:07
27,17,14720,2018-10-22 04:59:11
27,17,16279,2018-10-18 01:58:08
27,17,19064,2018-10-22 05:26:15
27,17,24581,2018-10-22 04:53:51
27,17,26861,2018-10-22 04:35:07
27,17,35374,2018-10-22 05:17:26
27,17,527920,2018-10-24 14:17:17
27,17,36191,2018-10-22 04:53:51
27,17,41120,2018-10-22 04:53:36
27,17,42892,2018-10-22 04:26:05
27,17,44691,2018-10-22 04:56:27
27,17,49251,2018-10-22 04:54:09
27,17,51140,2018-10-22 05:15:26
27,17,52868,2018-10-22 04:44:14
27,17,55966,2018-10-22 04:58:45
27,17,57937,2018-10-22 05:27:47
27,17,60197,2018-10-22 04:56:00
27,17,64307,2018-10-22 04:42:43
27,17,71147,2018-10-22 04:47:16
27,17,88171,2018-10-23 21:48:27
27,17,79903,2018-10-19 23:51:16
27,17,85805,2018-10-22 04:53:36
27,17,94933,2018-10-22 05:02:11
27,17,97430,2018-10-22 04:41:11
27,17,118004,2018-10-22 04:53:52
27,17,151865,2018-10-22 04:41:10
27,17,158437,2018-10-22 05:32:27
27,17,165169,2018-10-22 04:48:47
27,17,175380,2018-10-22 05:42:29
27,17,176127,2018-10-20 02:27:26
27,17,185232,2018-10-22 05:24:26
27,17,189886,2018-10-22 08:30:55
27,17,195917,2018-10-23 13:21:07
27,17,200024,2018-10-22 18:19:01
27,17,204780,2018-11-07 07:57:10
27,17,599470,2018-10-23 14:00:47
27,17,233074,2018-10-22 06:34:13
27,17,259003,2018-10-22 05:50:41
27,17,260361,2018-10-22 16:32:52
27,17,301234,2018-10-23 05:54:57
27,17,307071,2018-10-22 05:24:27
27,17,310952,2018-10-22 05:10:12
27,17,328503,2018-10-23 07:04:57
27,17,533344,2018-10-22 07:33:09
27,17,546703,2018-10-22 07:01:06
27,17,571510,2018-10-22 10:13:56
27,17,605557,2018-10-28 05:25:26
27,17,620157,2018-10-22 06:19:00
112,16,4839,2018-10-18 12:27:29
112,16,63254,2018-10-18 12:27:34
112,16,28132,2018-10-18 12:27:31
112,16,81165,2018-10-18 12:27:32
112,17,99602,2018-10-18 12:28:21
112,17,13191,2018-10-18 12:27:51
112,17,24581,2018-10-18 12:27:59
112,17,6895,2018-10-18 12:27:53
112,17,26861,2018-10-18 12:28:01
112,17,97430,2018-10-18 12:28:20
112,17,49251,2018-10-18 12:28:05
112,17,94933,2018-10-18 12:28:18
112,17,51140,2018-10-18 12:28:07
112,17,52868,2018-10-18 12:28:08
112,17,118004,2018-10-18 12:27:50
112,17,85805,2018-10-18 12:28:17
112,17,71147,2018-10-18 12:28:02
112,17,16279,2018-10-18 12:27:56
112,17,19064,2018-10-18 12:27:57
112,17,14720,2018-10-18 12:27:54
112,17,60197,2018-10-18 12:28:13
112,17,79903,2018-10-18 12:28:04
112,17,64307,2018-10-18 12:28:15
112,17,55966,2018-10-18 12:28:10
112,17,57937,2018-10-18 12:28:12
139,15,4111,2018-10-23 12:23:01
139,15,-1,2018-10-25 10:57:10
139,15,4222,2018-10-23 12:22:53
139,16,212619,2018-11-03 12:45:46
154,15,4222,2018-10-28 08:43:35
154,15,4111,2018-10-26 05:13:52
154,15,-1,2018-10-19 06:26:44
154,16,46947,2018-10-17 16:41:04
154,16,538873,2018-10-17 17:18:36
154,16,81165,2018-10-17 16:53:36
154,16,50985,2018-10-17 16:41:04
154,16,467517,2018-10-17 17:31:09
154,16,177054,2018-10-17 17:53:09
154,16,607394,2018-10-17 17:46:53
154,16,28132,2018-10-17 16:40:58
154,16,178531,2018-10-17 17:15:23
154,16,609546,2018-10-17 17:13:51
154,16,904460,2018-10-26 16:17:15
154,16,438148,2018-10-28 05:01:21
154,16,206818,2018-10-17 17:29:32
154,16,44015,2018-10-28 02:43:02
154,16,409237,2018-10-17 16:45:49
154,16,950,2018-10-17 16:40:55
154,16,3418,2018-10-26 05:15:51
154,16,212619,2018-10-28 04:47:37
154,16,22669,2018-10-17 16:40:57
154,16,51838,2018-10-17 16:45:51
154,16,14456,2018-10-17 16:40:57
154,16,9186,2018-10-26 05:49:01
154,16,4839,2018-10-17 16:40:56
154,16,36630,2018-10-17 16:40:59
154,16,42455,2018-10-28 00:05:15
154,16,3761,2018-10-17 16:40:56
154,16,227855,2018-10-17 16:45:49
154,16,39915,2018-10-17 16:40:58
154,16,300707,2018-10-17 17:15:25
154,16,44881,2018-10-17 16:41:03
154,16,63254,2018-10-17 16:40:55
154,16,553002,2018-10-28 00:41:34
154,16,546572,2018-10-17 16:52:02
154,17,1334092,2018-11-01 13:32:34
154,17,322,2018-10-25 22:31:50
154,17,1990,2018-10-25 05:26:19
154,17,2370,2018-10-25 23:59:20
154,17,2589,2018-10-26 02:25:25
154,17,2857,2018-10-25 22:31:51
154,17,3195,2018-10-26 16:16:54
154,17,3712,2018-10-25 22:48:24
154,17,6895,2018-10-22 06:18:08
154,17,7707,2018-10-27 22:03:38
154,17,8255,2018-10-25 22:58:56
154,17,14720,2018-11-01 13:39:08
154,17,24581,2018-11-07 15:44:22
154,17,34463,2018-10-28 01:38:50
154,17,36191,2018-10-26 04:27:24
154,17,42892,2018-11-06 02:54:45
154,17,44691,2018-11-01 13:28:38
154,17,46195,2018-10-25 23:59:21
154,17,47072,2018-10-25 22:34:52
154,17,50115,2018-10-26 16:16:58
154,17,59133,2018-10-28 04:28:13
154,17,60197,2018-11-04 17:12:15
154,17,64307,2018-10-25 22:51:25
154,17,79903,2018-10-21 01:43:32
154,17,83075,2018-10-28 11:06:29
154,17,85805,2018-10-25 22:31:51
154,17,97430,2018-10-28 12:19:32
154,17,98068,2018-10-25 23:10:58
154,17,119403,2018-10-26 02:19:24
154,17,158437,2018-10-26 05:15:32
154,17,173490,2018-10-26 01:05:37
154,17,175380,2018-11-01 13:36:55
154,17,176127,2018-10-28 02:48:42
154,17,185232,2018-10-28 13:00:56
154,17,205199,2018-11-01 13:29:48
154,17,206816,2018-10-26 03:28:37
154,17,233074,2018-10-28 09:04:03
154,17,248998,2018-11-01 13:29:26
154,17,366475,2018-10-26 01:50:49
154,17,369220,2018-10-28 11:52:06
154,17,413001,2018-10-26 05:52:42
154,17,549338,2018-10-25 23:50:14
154,17,551082,2018-11-01 13:34:01
154,17,578778,2018-10-28 00:39:22
154,17,607120,2018-10-25 22:39:23
154,17,609436,2018-10-26 00:37:02
154,17,614873,2018-10-28 13:00:57
154,17,670817,2018-10-26 04:12:22
154,17,872422,2018-11-01 13:29:39
154,17,1131793,2018-10-25 23:54:49
154,17,1330929,2018-10-25 23:21:29
154,17,1336399,2018-10-26 01:02:37
154,17,1345036,2018-10-25 22:28:50
154,17,1347139,2018-10-28 10:34:24
154,17,1356265,2018-10-25 22:24:19
154,17,1358773,2018-10-28 04:09:37
154,17,647046,2018-10-28 16:59:55
154,17,599470,2018-11-01 13:38:21
154,17,88171,2018-11-01 13:32:56
155,16,36630,2018-10-27 01:18:34
155,16,467517,2018-10-27 01:18:44
155,16,438148,2018-10-27 01:18:28
155,16,227855,2018-10-27 01:18:01
155,16,28132,2018-10-26 23:54:46
155,16,212619,2018-10-27 01:18:28
155,16,206818,2018-10-27 01:18:42
155,16,177054,2018-10-27 01:18:21
155,16,81165,2018-10-27 01:18:22
155,16,63254,2018-10-26 23:54:55
155,16,51838,2018-10-27 01:18:40
155,16,50985,2018-10-27 01:18:27
155,16,14456,2018-10-27 18:15:31
155,16,46947,2018-10-27 01:18:36
155,16,44881,2018-10-29 06:07:29
155,16,44015,2018-10-27 01:18:35
155,16,42455,2018-10-27 01:18:33
155,16,39915,2018-10-27 01:18:47
155,16,904460,2018-10-27 18:15:37
155,16,3761,2018-10-27 01:18:41
155,16,609546,2018-10-27 18:15:37
155,16,607394,2018-10-27 01:18:20
155,16,578192,2018-10-27 01:18:47
