bug_id,binary_id
12466,27
16332,27
28409,27
33694,27
33987,27
34023,27
34324,27
35059,27
36703,27
49796,27
67501,27
68019,27
68516,27
69791,27
70515,27
71022,27
72427,27
75546,27
79223,27
83174,27
84065,27
85630,27
87464,27
89055,27
90982,27
93489,27
96614,27
97512,27
98511,27
101130,27
102026,27
105649,27
106695,27
110025,27
110536,27
123696,27
128198,27
130110,27
132718,27
137135,27
139254,27
142664,27
145280,27
149526,27
160129,27
161526,27
163440,27
168218,27
170715,27
177509,27
181254,27
193517,27
240955,27
246822,27
256174,27
264397,27
291074,27
296076,27
313517,27
318689,27
327223,27
332289,27
345259,27
411406,27
417255,27
542839,27
560565,27
618126,27
623301,27
641827,27
655577,27
678701,27
713677,27
717099,27
728388,27
747699,27
765846,27
787156,27
795710,27
801515,27
812652,27
813202,27
816980,27
817324,27
821273,27
825929,27
3,28
16,28
37,28
53,28
67,28
85,28
250,28
283,28
377,28
723,28
893,28
1179,28
1723,28
2044,28
2325,28
2556,28
3095,28
4369,28
4675,28
5947,28
10828,28
14339,28
21788,28
23038,28
25046,28
27057,28
28551,28
37479,28
46734,28
49368,28
49625,28
74232,28
107419,28
109086,28
135805,28
138433,28
141733,28
146414,28
148168,28
162536,28
163848,28
165647,28
177370,28
183928,28
186630,28
193347,28
197334,28
200110,28
208116,28
210135,28
214473,28
217190,28
221204,28
224663,28
230855,28
252628,28
267793,28
269927,28
283588,28
314308,28
319083,28
334236,28
353079,28
355579,28
356995,28
370975,28
390038,28
394361,28
402291,28
419700,28
422316,28
430505,28
94,29
3187,29
7209,29
61412,29
105270,29
214345,29
386298,29
497895,29
657334,29
1023303,29
1976376,29
2310810,29
3090052,29
3318159,29
3664903,29
3725992,29
6961333,29
8814509,29
320203,30
332005,30
386147,30
613349,30
1722979,30
2304728,30
3282262,30
3592750,30
4125557,30
15,31
75,31
178,31
517,31
1600,31
125042,31
132416,31
240721,31
318497,31
340134,31
358178,31
388148,31
827030,31
1758508,31
2155729,31
2595931,31
2896715,31
2952078,31
2973182,31
2991004,31
3012203,31
-1,28
-1,31
