{
	"file": "https://gitlab.com/Rode0day/results/raw/master/19.02/submissions.csv",
	"name": "Rode0day 2019.02 submissions",
	"header": 0,
	"separator": ",",
	"skip": 0,
	"meta": [
		{ "type": "id", "index": 0, "name": "UserId" },
		{ "type": "integer", "index": 1, "name": "ChallengeId" },
		{ "type": "integer", "index": 2, "name": "BugId" }
	],
	"sets": [
		{ "format": "binary", "start": 1, "end": 2 }
	]
}
