bug_id,binary_id
203,11
369,11
470,11
489,11
9929,11
11137,11
12825,11
13702,11
15009,11
18354,11
18832,11
19556,11
20284,11
20762,11
23488,11
24109,11
28231,11
31912,11
32759,11
32920,11
33072,11
36404,11
40226,11
41418,11
45816,11
47443,11
48235,11
48545,11
48746,11
183,12
204,12
270,12
371,12
469,12
491,12
3394,12
3764,12
4528,12
6017,12
6759,12
9608,12
9935,12
10534,12
11051,12
11281,12
12789,12
13703,12
14812,12
17889,12
18831,12
19561,12
20781,12
21239,12
23490,12
23803,12
24117,12
25465,12
26394,12
28311,12
29108,12
30400,12
30719,12
31918,12
32095,12
32925,12
33062,12
33232,12
33351,12
36420,12
40238,12
40483,12
41385,12
44994,12
48552,12
48939,12
-1,13
23,13
44,13
49,13
61,13
91,13
101,13
111,13
126,13
127,13
138,13
201,13
212,13
222,13
235,13
243,13
267,13
304,13
352,13
391,13
674,13
847,13
889,13
951,13
1032,13
1106,13
1235,13
1340,13
2989,13
7284,13
8307,13
13767,13
15758,13
18268,13
20977,13
24108,13
33645,13
42546,13
48190,13
49132,13
53715,13
116010,13
131735,13
138771,13
142037,13
150284,13
157095,13
158313,13
159434,13
160323,13
162504,13
171634,13
176751,13
177905,13
178479,13
179235,13
184168,13
186184,13
193523,13
197020,13
198503,13
203431,13
204573,13
207830,13
208891,13
218901,13
222374,13
229906,13
233620,13
241952,13
246230,13
250179,13
250733,13
254551,13
277522,13
279361,13
292590,13
301943,13
322362,13
326028,13
345999,13
417657,13
465364,13
680377,13
848877,13
868258,13
910816,13
1151629,13
1732654,13
1773475,13
2264414,13
3898299,13
4196892,13
-1,14
1,14
21,14
43,14
52,14
61,14
94,14
104,14
109,14
130,14
136,14
160,14
201,14
211,14
223,14
229,14
235,14
241,14
265,14
299,14
352,14
392,14
661,14
864,14
884,14
951,14
1028,14
1103,14
1235,14
1336,14
2568,14
2985,14
6283,14
6994,14
9749,14
11125,14
13016,14
15683,14
17003,14
18277,14
22325,14
24071,14
25316,14
34513,14
42272,14
43423,14
45841,14
49122,14
79165,14
85498,14
87858,14
104121,14
131284,14
134481,14
140796,14
152903,14
156912,14
157647,14
172119,14
175948,14
176998,14
180432,14
186146,14
193492,14
202580,14
203000,14
208274,14
215151,14
218789,14
222260,14
227519,14
230031,14
233343,14
236051,14
238279,14
241542,14
243081,14
246392,14
251047,14
253340,14
254497,14
258168,14
259871,14
262709,14
270114,14
277509,14
285391,14
289455,14
292500,14
295047,14
297436,14
303690,14
304766,14
313961,14
321209,14
326361,14
333861,14
345621,14
363857,14
409673,14
417514,14
459552,14
593822,14
598053,14
608997,14
613542,14
629650,14
660008,14
734553,14
815763,14
1253862,14
1525933,14
1536210,14
1745621,14
1773020,14
2212714,14
2460886,14
4173065,14
4433554,14
4807984,14
5814047,14
5968416,14
5992829,14
6020222,14
