user_id,challenge_id,bug_id,time
14,11,11137,2018-09-22 19:24:17
14,11,40226,2018-09-22 18:24:17
14,11,9929,2018-09-22 03:31:39
14,11,203,2018-09-22 18:25:39
14,11,20284,2018-09-23 20:13:57
14,11,369,2018-09-22 03:23:53
14,11,489,2018-09-22 03:28:58
14,11,45816,2018-09-22 03:24:34
14,11,470,2018-09-22 03:24:32
14,11,36404,2018-09-22 19:24:15
14,11,12825,2018-09-23 21:56:47
14,11,13702,2018-09-22 19:24:32
14,11,19556,2018-09-22 19:24:30
14,12,371,2018-09-22 03:39:16
14,12,204,2018-09-22 03:38:44
14,13,218901,2018-09-23 22:38:27
14,13,222,2018-09-22 14:15:54
14,13,222374,2018-09-28 04:23:24
14,13,138,2018-09-22 14:15:56
14,13,20977,2018-09-25 06:57:10
14,13,345999,2018-09-25 06:55:52
14,13,49132,2018-09-25 06:56:05
14,13,131735,2018-09-25 06:57:11
14,13,53715,2018-09-25 06:57:15
14,13,465364,2018-09-25 06:58:14
14,13,1773475,2018-09-25 06:59:08
14,13,138771,2018-09-25 07:12:51
14,13,179235,2018-09-25 07:14:09
14,13,868258,2018-09-25 07:14:10
14,13,48190,2018-09-23 22:30:37
14,13,157095,2018-09-23 22:30:08
14,13,207830,2018-09-23 22:30:07
14,13,417657,2018-09-23 22:21:08
14,13,208891,2018-09-23 22:21:07
14,13,279361,2018-09-23 22:15:02
14,13,326028,2018-09-23 22:13:01
14,13,322362,2018-09-23 22:13:00
14,13,229906,2018-09-25 06:58:10
14,13,184168,2018-09-23 22:14:12
14,13,171634,2018-09-25 06:55:24
14,13,243,2018-09-25 06:59:07
14,13,126,2018-09-22 02:59:06
14,13,889,2018-09-22 02:59:45
14,13,33645,2018-09-22 02:59:46
14,13,8307,2018-09-22 02:59:48
14,13,2989,2018-09-22 02:59:49
14,13,1340,2018-09-22 02:59:50
14,13,15758,2018-09-22 02:59:52
14,13,7284,2018-09-22 02:59:58
14,13,352,2018-09-22 03:00:33
14,13,42546,2018-09-22 03:01:08
14,13,116010,2018-09-22 14:13:34
14,13,162504,2018-09-22 16:07:04
14,13,-1,2018-09-22 15:10:24
14,13,1151629,2018-09-22 14:39:08
14,13,246230,2018-09-22 14:24:03
14,13,150284,2018-09-22 14:24:01
14,13,250179,2018-09-22 14:23:57
14,13,204573,2018-09-22 14:23:56
14,13,18268,2018-09-22 14:23:54
14,13,13767,2018-09-22 14:21:05
14,13,176751,2018-09-22 16:01:08
14,13,254551,2018-09-22 14:20:51
14,13,203431,2018-09-22 14:18:41
14,13,158313,2018-09-22 14:18:40
14,13,301943,2018-09-22 14:18:39
14,13,198503,2018-09-22 14:18:36
14,13,3898299,2018-09-22 14:17:24
14,13,197020,2018-09-22 14:16:15
14,13,292590,2018-09-22 14:16:06
14,13,142037,2018-09-22 14:16:03
14,13,212,2018-09-22 14:16:00
14,13,304,2018-09-22 14:15:57
14,13,674,2018-09-22 14:15:53
14,13,910816,2018-09-22 14:15:51
14,13,848877,2018-09-22 14:15:50
14,13,2264414,2018-09-22 14:15:49
14,13,24108,2018-09-22 14:15:26
14,13,250733,2018-09-22 14:15:14
14,13,277522,2018-09-22 14:14:48
14,13,193523,2018-09-22 14:14:40
14,13,1732654,2018-09-22 14:14:08
14,13,160323,2018-09-22 14:14:05
14,13,233620,2018-09-22 14:13:57
14,13,159434,2018-09-22 14:13:54
14,13,4196892,2018-09-22 14:13:53
14,14,259871,2018-09-22 13:30:53
14,14,417514,2018-09-25 13:05:31
14,14,136,2018-09-22 13:30:55
14,14,160,2018-09-22 13:30:56
14,14,1525933,2018-09-25 13:46:35
14,14,211,2018-09-22 13:30:57
14,14,94,2018-09-22 13:30:58
14,14,1336,2018-09-22 03:44:13
14,14,598053,2018-09-22 13:31:21
14,14,218789,2018-09-25 12:13:03
14,14,227519,2018-09-22 13:31:03
14,14,2568,2018-09-22 03:44:14
14,14,352,2018-09-22 13:31:01
14,14,1773020,2018-09-22 13:31:22
14,14,5992829,2018-09-22 03:44:16
14,14,2212714,2018-09-24 06:55:19
14,14,6283,2018-09-22 03:45:33
14,14,134481,2018-09-25 12:13:05
14,14,18277,2018-09-22 03:48:53
14,14,815763,2018-09-22 13:31:02
14,14,49122,2018-09-22 04:06:05
14,14,157647,2018-09-24 06:55:28
14,14,193492,2018-09-22 13:30:54
14,14,130,2018-09-22 13:30:59
14,14,1536210,2018-09-22 14:09:04
14,14,1028,2018-09-22 04:17:21
14,14,241542,2018-09-22 13:48:27
14,14,303690,2018-09-22 13:46:32
14,14,156912,2018-09-22 13:43:18
14,14,333861,2018-09-22 13:42:01
14,14,34513,2018-09-22 13:36:49
14,14,176998,2018-09-24 06:55:41
14,14,6994,2018-09-24 06:26:42
14,14,409673,2018-09-25 12:16:03
14,14,608997,2018-09-24 06:46:35
14,14,345621,2018-09-25 12:16:42
14,14,222260,2018-09-24 06:28:43
14,14,734553,2018-09-24 06:26:26
14,14,304766,2018-09-24 06:26:23
14,14,131284,2018-09-24 06:26:22
14,14,-1,2018-09-25 12:17:12
14,14,42272,2018-09-24 06:26:21
14,14,4173065,2018-09-25 12:24:48
14,14,660008,2018-09-24 06:46:54
14,14,326361,2018-09-24 06:46:43
14,14,321209,2018-09-24 06:47:04
14,14,233343,2018-09-24 09:21:06
14,14,251047,2018-09-25 12:15:41
14,14,277509,2018-09-25 12:16:39
14,14,5968416,2018-09-22 13:36:48
14,14,254497,2018-09-22 13:33:25
14,14,215151,2018-09-24 07:05:36
14,14,15683,2018-09-24 06:56:22
14,14,230031,2018-09-22 13:33:22
14,14,175948,2018-09-24 06:59:30
14,14,313961,2018-09-24 06:47:05
14,14,289455,2018-09-24 06:59:29
14,14,152903,2018-09-24 06:47:51
14,14,43423,2018-09-22 13:32:48
14,14,1745621,2018-09-22 13:32:23
14,14,593822,2018-09-24 06:46:49
14,14,6020222,2018-09-22 13:32:20
14,14,45841,2018-09-22 13:27:42
14,14,24071,2018-09-22 13:27:38
14,14,661,2018-09-24 06:27:13
14,14,22325,2018-09-25 12:30:17
14,14,9749,2018-09-22 13:32:18
14,14,2460886,2018-09-22 13:32:16
14,14,258168,2018-09-24 06:55:01
14,14,203000,2018-09-22 13:32:15
14,14,180432,2018-09-25 12:34:12
14,14,25316,2018-09-22 13:32:14
14,14,202580,2018-09-22 13:32:12
14,14,5814047,2018-09-24 06:46:53
14,14,172119,2018-09-24 06:26:20
14,14,140796,2018-09-22 13:32:10
14,14,1253862,2018-09-22 13:32:08
14,14,253340,2018-09-22 13:31:33
14,14,13016,2018-09-22 13:42:47
14,14,297436,2018-09-22 13:31:29
14,14,4433554,2018-09-22 13:31:28
14,14,243081,2018-09-24 06:46:38
14,14,459552,2018-09-25 12:36:15
14,14,246392,2018-09-22 13:30:52
14,14,265,2018-09-24 06:27:00
14,14,285391,2018-09-22 13:31:27
14,14,292500,2018-09-25 12:38:39
14,14,613542,2018-09-22 13:31:25
14,14,238279,2018-09-25 13:02:43
16,13,116010,2018-09-21 17:26:15
17,11,24109,2018-09-22 01:08:17
17,11,31912,2018-09-22 00:46:12
17,11,32920,2018-09-22 00:48:13
17,11,13702,2018-09-22 00:49:14
17,11,20284,2018-09-22 00:49:14
17,11,9929,2018-09-22 00:54:15
17,11,11137,2018-09-22 01:05:16
17,11,32759,2018-09-22 02:55:58
17,11,18832,2018-10-11 20:24:56
17,11,18354,2018-10-11 20:24:26
17,11,20762,2018-09-22 04:08:06
17,11,23488,2018-10-11 20:21:54
17,11,41418,2018-10-11 20:21:53
17,11,28231,2018-09-22 10:13:13
17,11,203,2018-09-22 00:46:09
17,11,369,2018-09-22 00:46:10
17,11,15009,2018-09-22 00:46:11
17,11,33072,2018-09-22 00:46:12
17,11,470,2018-09-22 00:46:12
17,11,12825,2018-10-12 05:43:56
17,12,469,2018-09-22 00:46:42
17,12,48552,2018-10-11 20:27:57
17,12,32095,2018-10-11 20:33:58
17,12,33232,2018-10-11 20:27:26
17,12,25465,2018-09-22 00:51:13
17,12,33351,2018-09-22 00:46:09
17,12,183,2018-09-22 00:46:42
17,12,13703,2018-10-11 20:28:57
17,12,30400,2018-10-15 22:33:15
17,12,12789,2018-09-22 00:46:11
17,12,23803,2018-09-22 00:46:08
17,12,24117,2018-09-22 01:25:48
17,12,18831,2018-09-22 00:46:10
17,12,3764,2018-09-22 00:46:41
17,12,40238,2018-09-22 01:59:51
17,12,14812,2018-09-22 01:07:15
17,12,371,2018-09-22 00:52:13
17,12,44994,2018-09-22 01:59:52
17,13,1106,2018-09-22 06:24:40
17,13,222,2018-09-22 11:45:24
17,13,138,2018-09-22 11:45:25
17,13,176751,2018-09-22 06:29:41
17,13,23,2018-09-22 11:45:26
17,13,1032,2018-10-12 02:30:45
17,13,20977,2018-09-22 11:47:26
17,13,126,2018-09-22 11:45:24
17,13,116010,2018-09-22 01:05:40
17,13,49,2018-09-22 11:45:24
17,13,44,2018-09-22 11:45:25
17,14,5968416,2018-10-12 03:04:38
17,14,1773020,2018-09-22 08:14:11
17,14,11125,2018-10-12 02:44:05
17,14,243081,2018-09-22 06:59:33
17,14,1028,2018-09-22 06:40:00
17,14,392,2018-09-22 06:39:59
17,14,13016,2018-09-22 06:41:00
17,14,130,2018-10-12 09:07:59
17,14,21,2018-09-22 06:40:00
17,14,4807984,2018-09-22 08:40:15
17,14,815763,2018-09-22 07:12:34
17,14,43,2018-10-12 09:08:00
17,14,45841,2018-09-22 06:39:59
17,14,6020222,2018-10-12 03:04:38
17,14,233343,2018-10-12 02:44:04
17,14,5992829,2018-09-22 06:43:01
17,14,6994,2018-09-22 06:39:58
17,14,241,2018-10-12 02:43:34
27,13,267,2018-09-24 08:12:12
27,13,1032,2018-10-16 20:17:14
27,13,-1,2018-09-24 06:02:50
27,13,116010,2018-09-21 18:25:19
27,14,21,2018-09-25 15:05:38
27,14,1,2018-09-21 19:37:22
27,14,661,2018-09-23 09:27:54
46,12,40238,2018-09-26 06:57:12
46,12,12789,2018-09-26 06:56:29
46,12,3764,2018-09-26 06:55:58
46,12,10534,2018-09-26 06:57:39
46,12,183,2018-09-26 06:57:30
46,12,25465,2018-09-26 06:56:53
46,12,20781,2018-09-26 06:57:27
46,12,371,2018-09-26 06:57:18
46,12,4528,2018-09-26 06:57:15
46,12,9935,2018-09-26 06:56:24
46,12,26394,2018-09-26 06:57:25
46,12,19561,2018-09-26 06:56:14
46,12,23490,2018-09-26 06:57:22
46,12,13703,2018-09-26 06:57:08
46,12,30719,2018-09-26 06:56:03
46,12,31918,2018-09-26 06:57:05
46,12,30400,2018-09-26 06:57:44
46,12,11281,2018-09-26 06:57:03
46,12,28311,2018-09-26 06:56:07
46,12,40483,2018-09-26 06:56:56
46,12,11051,2018-09-26 06:56:44
46,12,29108,2018-09-26 06:57:00
46,12,17889,2018-09-26 06:56:41
46,12,41385,2018-09-26 06:56:39
46,12,21239,2018-09-26 06:56:32
46,12,33062,2018-09-26 06:56:36
46,12,6759,2018-09-26 06:57:20
46,12,6017,2018-09-26 06:56:51
46,12,33232,2018-09-26 06:56:34
46,12,48939,2018-09-26 06:57:37
46,12,32095,2018-09-26 06:56:27
46,12,48552,2018-09-26 06:57:34
46,12,14812,2018-09-26 06:56:00
46,12,24117,2018-09-26 06:56:46
46,12,44994,2018-09-26 06:57:10
46,12,491,2018-09-26 06:56:17
46,12,469,2018-09-26 06:56:48
46,12,36420,2018-09-26 06:56:22
46,12,33351,2018-09-26 06:56:58
46,12,32925,2018-09-26 06:56:19
46,12,18831,2018-09-26 06:57:41
46,12,9608,2018-09-26 06:56:10
46,12,270,2018-09-26 06:56:05
46,12,23803,2018-09-26 06:56:12
46,12,204,2018-09-26 06:57:32
46,13,304,2018-10-06 09:12:24
46,13,138,2018-10-06 09:12:33
46,13,212,2018-10-06 09:12:20
46,13,23,2018-10-06 09:12:16
46,13,127,2018-10-06 09:12:37
46,13,201,2018-10-06 09:12:03
46,13,111,2018-10-06 09:12:48
46,13,243,2018-10-06 09:12:46
46,13,222,2018-10-06 09:12:50
46,13,126,2018-10-06 09:12:44
46,13,49,2018-10-06 09:12:18
46,13,1235,2018-10-06 09:12:13
46,13,951,2018-10-06 09:12:07
46,13,847,2018-10-06 09:12:09
46,13,352,2018-10-06 09:12:35
46,13,391,2018-10-06 09:12:05
46,13,61,2018-10-06 09:12:42
46,13,235,2018-10-06 09:12:29
46,13,267,2018-10-06 09:12:40
46,13,889,2018-10-06 09:12:22
46,13,101,2018-10-06 09:12:26
46,13,91,2018-10-06 09:12:31
46,13,44,2018-10-06 09:12:53
46,13,674,2018-10-06 09:12:11
46,14,884,2018-09-26 08:30:54
46,14,1028,2018-09-26 08:31:06
46,14,661,2018-09-26 08:30:45
46,14,864,2018-09-26 08:31:04
46,14,2985,2018-09-26 08:31:16
46,14,392,2018-09-26 08:30:57
46,14,94,2018-09-26 08:30:35
46,14,211,2018-09-26 08:30:16
46,14,160,2018-09-26 08:30:13
46,14,104,2018-09-26 08:30:59
46,14,241,2018-09-26 08:30:30
46,14,265,2018-09-26 08:30:47
46,14,951,2018-09-26 08:30:33
46,14,235,2018-09-26 08:30:21
46,14,2568,2018-09-26 08:31:13
46,14,229,2018-09-26 08:30:18
46,14,1336,2018-09-26 08:30:11
46,14,1103,2018-09-26 08:31:09
46,14,52,2018-09-26 08:30:52
46,14,61,2018-09-26 08:30:23
46,14,1235,2018-09-26 08:31:11
46,14,43,2018-09-26 08:30:40
46,14,21,2018-09-26 08:30:38
46,14,223,2018-09-26 08:30:49
46,14,299,2018-09-26 08:30:42
46,14,136,2018-09-26 08:30:28
46,14,352,2018-09-26 08:31:02
46,14,130,2018-09-26 08:30:26
112,11,48235,2018-09-22 07:05:21
112,11,489,2018-09-22 06:36:21
112,11,369,2018-09-22 06:52:19
112,11,48545,2018-09-22 07:05:41
112,11,48746,2018-09-22 07:07:09
112,11,203,2018-09-22 06:54:13
112,11,45816,2018-09-22 06:52:24
112,11,470,2018-09-22 06:36:16
112,11,47443,2018-09-22 06:57:42
112,12,21239,2018-09-22 07:40:27
112,12,23803,2018-09-22 07:42:04
112,12,4528,2018-09-22 07:52:17
112,12,9935,2018-09-22 07:44:04
112,12,19561,2018-09-22 07:43:47
112,12,30719,2018-09-22 07:43:26
112,12,30400,2018-09-22 07:43:13
112,12,28311,2018-09-22 07:43:00
112,12,29108,2018-09-22 07:41:21
112,12,6759,2018-09-22 07:38:30
112,12,6017,2018-09-22 07:38:04
112,12,48939,2018-09-22 07:32:03
112,12,48552,2018-09-22 07:31:47
112,12,3394,2018-09-22 07:20:29
112,12,491,2018-09-22 06:19:32
112,12,204,2018-09-22 06:19:44
112,12,3764,2018-09-22 07:20:55
112,12,44994,2018-09-22 07:51:22
112,12,371,2018-09-22 06:19:54
112,12,183,2018-09-22 06:19:39
112,12,469,2018-09-22 07:30:13
112,13,177905,2018-09-23 05:41:58
112,13,178479,2018-09-23 05:42:02
112,13,352,2018-09-23 05:41:29
112,13,184168,2018-09-23 05:42:06
112,13,186184,2018-09-23 05:42:06
112,13,44,2018-09-23 05:40:40
112,13,229906,2018-09-23 05:42:38
112,13,241952,2018-09-23 05:42:46
112,13,680377,2018-09-23 05:43:07
112,13,233620,2018-09-23 05:42:42
112,13,198503,2018-09-23 05:42:22
112,13,250733,2018-09-23 05:42:58
112,13,197020,2018-09-23 05:42:17
112,13,304,2018-09-23 05:41:21
112,13,212,2018-09-23 05:41:00
112,13,235,2018-09-23 05:41:08
112,13,23,2018-09-23 05:40:35
112,13,889,2018-09-23 05:41:38
112,13,243,2018-09-23 05:41:12
112,13,126,2018-09-23 05:40:51
112,13,61,2018-09-23 05:40:47
112,13,138,2018-09-23 05:40:55
112,13,267,2018-09-23 05:41:17
112,13,116010,2018-09-23 04:25:30
112,13,391,2018-09-23 05:41:26
112,13,246230,2018-09-23 05:42:50
112,13,847,2018-09-23 05:41:34
112,13,222,2018-09-23 05:41:04
112,13,250179,2018-09-23 05:42:54
112,13,951,2018-09-23 05:41:42
112,13,49,2018-09-23 05:40:43
112,13,204573,2018-09-23 05:42:33
112,13,1235,2018-09-23 05:41:46
112,13,301943,2018-09-23 05:43:02
112,13,171634,2018-09-23 05:41:50
112,14,211,2018-09-23 04:21:52
112,14,951,2018-09-23 04:21:04
112,14,229,2018-09-23 04:20:40
112,14,223,2018-09-23 04:20:36
112,14,1235,2018-09-23 04:21:08
112,14,172119,2018-09-23 04:21:13
112,14,241,2018-09-23 04:20:29
112,14,5814047,2018-09-23 04:21:34
112,14,104,2018-09-23 04:20:21
112,14,61,2018-09-23 04:20:10
112,14,52,2018-09-23 04:20:06
112,14,864,2018-09-23 04:20:02
112,14,299,2018-09-23 04:19:54
112,14,43,2018-09-23 04:19:50
112,14,392,2018-09-23 04:19:58
112,14,21,2018-09-23 04:19:45
112,14,5968416,2018-09-23 04:22:19
112,14,352,2018-09-23 04:20:56
112,14,130,2018-09-23 04:21:39
112,14,94,2018-09-23 04:20:14
112,14,235,2018-09-23 04:20:44
112,14,160,2018-09-23 04:20:33
112,14,136,2018-09-23 04:20:25
112,14,265,2018-09-23 04:20:48
112,14,884,2018-09-23 04:21:00
139,13,61,2018-10-12 07:13:58
139,13,49,2018-09-25 08:41:13
139,13,951,2018-10-12 07:13:44
139,13,235,2018-10-12 07:14:00
139,13,116010,2018-09-21 17:53:21
139,13,322362,2018-10-17 08:01:24
139,13,42546,2018-09-26 07:16:30
139,13,198503,2018-09-26 12:25:07
139,13,250733,2018-10-16 15:03:37
139,13,179235,2018-09-26 12:25:05
139,13,1235,2018-10-12 07:13:54
139,13,44,2018-09-25 08:41:14
139,13,352,2018-10-12 07:13:55
139,13,48190,2018-09-26 07:16:43
139,14,85498,2018-10-17 08:04:15
139,14,1336,2018-10-17 08:05:39
139,14,2568,2018-10-17 08:06:42
139,14,49122,2018-10-17 08:03:52
139,14,1028,2018-10-17 08:05:22
139,14,392,2018-10-17 08:05:03
139,14,21,2018-10-17 08:05:11
139,14,815763,2018-10-17 08:07:24
139,14,136,2018-10-17 08:05:55
139,14,160,2018-10-17 08:05:10
139,14,211,2018-10-17 08:04:57
139,14,94,2018-10-17 08:05:20
139,14,130,2018-10-17 08:04:59
139,14,352,2018-10-17 08:05:14
139,14,43,2018-10-17 08:06:01
139,14,299,2018-10-17 08:05:25
139,14,864,2018-10-17 08:05:27
139,14,52,2018-10-17 08:03:54
139,14,61,2018-10-17 08:05:13
139,14,104,2018-10-17 08:05:57
139,14,241,2018-10-17 08:05:08
139,14,229,2018-10-17 08:05:31
139,14,235,2018-10-17 08:06:09
139,14,265,2018-10-17 08:05:23
139,14,884,2018-10-17 08:05:36
139,14,951,2018-10-17 08:05:18
139,14,1235,2018-10-17 08:05:59
139,14,661,2018-10-17 08:05:04
139,14,42272,2018-10-17 08:06:14
139,14,251047,2018-10-17 08:04:44
139,14,180432,2018-10-17 08:04:14
139,14,1103,2018-10-17 08:05:16
139,14,2985,2018-10-17 08:05:01
154,13,116010,2018-10-11 16:41:09
154,13,267,2018-10-16 13:23:55
154,14,409673,2018-10-13 07:03:13
154,14,660008,2018-10-14 09:56:10
154,14,277509,2018-10-13 11:22:41
154,14,593822,2018-10-13 21:08:20
154,14,345621,2018-10-13 06:48:06
154,14,608997,2018-10-16 14:03:10
154,14,-1,2018-10-15 07:58:49
154,14,131284,2018-10-13 05:00:34
154,14,42272,2018-10-16 14:11:39
154,14,22325,2018-10-13 06:20:56
154,14,661,2018-10-13 03:47:33
154,14,270114,2018-10-16 14:05:13
154,14,180432,2018-10-13 05:26:21
154,14,172119,2018-10-16 14:27:27
154,14,292500,2018-10-13 05:29:26
154,14,265,2018-10-13 03:47:31
154,14,223,2018-10-13 03:47:30
154,14,417514,2018-10-13 06:54:08
154,14,241,2018-10-13 03:47:31
154,14,104,2018-10-13 03:47:28
154,14,61,2018-10-13 03:47:28
154,14,52,2018-10-13 03:47:27
154,14,864,2018-10-13 03:47:33
154,14,43,2018-10-13 03:47:27
154,14,241542,2018-10-13 05:41:40
154,14,303690,2018-10-13 19:04:55
154,14,156912,2018-10-13 05:12:40
154,14,34513,2018-10-16 14:34:53
154,14,230031,2018-10-13 05:24:48
154,14,1745621,2018-10-16 14:17:56
154,14,6020222,2018-10-16 00:30:11
154,14,9749,2018-10-13 05:12:41
154,14,2460886,2018-10-16 14:03:17
154,14,25316,2018-10-13 05:08:08
154,14,140796,2018-10-16 14:19:07
154,14,1253862,2018-10-16 14:03:17
154,14,253340,2018-10-13 06:30:01
154,14,297436,2018-10-16 23:13:50
154,14,285391,2018-10-13 05:30:58
154,14,352,2018-10-13 03:47:32
154,14,160,2018-10-13 03:47:30
154,14,17003,2018-10-16 14:24:20
154,14,136,2018-10-13 03:47:29
154,14,2985,2018-10-13 03:47:33
154,14,193492,2018-10-13 09:17:25
154,14,246392,2018-10-14 20:39:12
154,14,24071,2018-10-13 03:56:47
154,14,815763,2018-10-16 14:03:23
154,14,13016,2018-10-13 05:20:15
154,14,21,2018-10-13 03:47:27
154,14,45841,2018-10-13 04:04:31
154,14,392,2018-10-13 03:47:32
154,14,6994,2018-10-16 14:03:08
154,14,18277,2018-10-13 03:49:05
154,14,6283,2018-10-16 14:21:20
154,14,5992829,2018-10-13 03:49:04
154,14,2568,2018-10-13 04:09:03
154,14,11125,2018-10-13 03:56:46
154,14,1,2018-10-11 17:04:40
154,14,109,2018-10-13 03:47:29
154,14,201,2018-10-13 03:47:30
154,14,104121,2018-10-13 04:04:31
154,14,295047,2018-10-13 05:17:13
154,14,208274,2018-10-13 05:29:26
154,14,186146,2018-10-13 05:46:17
154,14,262709,2018-10-13 08:01:54
154,14,79165,2018-10-13 20:48:45
154,14,629650,2018-10-14 03:14:09
154,14,236051,2018-10-15 02:03:09
154,14,87858,2018-10-16 01:09:24
154,14,218789,2018-10-13 07:03:12
154,14,289455,2018-10-13 05:24:47
154,14,134481,2018-10-13 05:08:07
154,14,363857,2018-10-16 14:03:21
154,14,157647,2018-10-13 05:38:31
154,14,313961,2018-10-16 14:13:50
